{
    "key": "group_61e323afbd1cf",
    "title": "Post Type: Sports",
    "fields": [
        {
            "key": "field_61e323e858360",
            "label": "Template",
            "name": "template",
            "type": "button_group",
            "instructions": "",
            "required": 0,
            "conditional_logic": 0,
            "wrapper": {
                "width": "",
                "class": "",
                "id": ""
            },
            "choices": {
                "marshawn": "Marshawn",
                "wilson": "Wilson",
                "wagner": "Wagner"
            },
            "allow_null": 0,
            "default_value": "",
            "layout": "horizontal",
            "return_format": "value"
        },
        {
            "key": "field_61e3243758361",
            "label": "Summary",
            "name": "summary",
            "type": "flexible_content",
            "instructions": "",
            "required": 0,
            "conditional_logic": [
                [
                    {
                        "field": "field_61e323e858360",
                        "operator": "==",
                        "value": "marshawn"
                    }
                ]
            ],
            "wrapper": {
                "width": "",
                "class": "",
                "id": ""
            },
            "layouts": {
                "layout_61e3244136aac": {
                    "key": "layout_61e3244136aac",
                    "name": "team",
                    "label": "Team",
                    "display": "block",
                    "sub_fields": [
                        {
                            "key": "field_61e4cb83bb46c",
                            "label": "Info",
                            "name": "",
                            "type": "tab",
                            "instructions": "",
                            "required": 0,
                            "conditional_logic": 0,
                            "wrapper": {
                                "width": "",
                                "class": "",
                                "id": ""
                            },
                            "placement": "top",
                            "endpoint": 0
                        },
                        {
                            "key": "field_61e49cd0c4d43",
                            "label": "Team",
                            "name": "team",
                            "type": "group",
                            "instructions": "",
                            "required": 0,
                            "conditional_logic": 0,
                            "wrapper": {
                                "width": "33",
                                "class": "",
                                "id": ""
                            },
                            "layout": "block",
                            "sub_fields": [
                                {
                                    "key": "field_61e34b1b9b249",
                                    "label": "Post",
                                    "name": "post",
                                    "type": "taxonomy",
                                    "instructions": "",
                                    "required": 0,
                                    "conditional_logic": 0,
                                    "wrapper": {
                                        "width": "",
                                        "class": "",
                                        "id": ""
                                    },
                                    "taxonomy": "team",
                                    "field_type": "select",
                                    "allow_null": 0,
                                    "add_term": 0,
                                    "save_terms": 0,
                                    "load_terms": 0,
                                    "return_format": "object",
                                    "multiple": 0
                                },
                                {
                                    "key": "field_61e49cf3c4d44",
                                    "label": "Record",
                                    "name": "record",
                                    "type": "text",
                                    "instructions": "",
                                    "required": 0,
                                    "conditional_logic": 0,
                                    "wrapper": {
                                        "width": "",
                                        "class": "",
                                        "id": ""
                                    },
                                    "default_value": "",
                                    "placeholder": "",
                                    "prepend": "",
                                    "append": "",
                                    "maxlength": ""
                                },
                                {
                                    "key": "field_61e49cfbc4d45",
                                    "label": "Status",
                                    "name": "status",
                                    "type": "text",
                                    "instructions": "",
                                    "required": 0,
                                    "conditional_logic": 0,
                                    "wrapper": {
                                        "width": "",
                                        "class": "",
                                        "id": ""
                                    },
                                    "default_value": "",
                                    "placeholder": "",
                                    "prepend": "",
                                    "append": "",
                                    "maxlength": ""
                                }
                            ]
                        },
                        {
                            "key": "field_61e3247d58364",
                            "label": "Summary",
                            "name": "summary",
                            "type": "wysiwyg",
                            "instructions": "",
                            "required": 0,
                            "conditional_logic": 0,
                            "wrapper": {
                                "width": "67",
                                "class": "",
                                "id": ""
                            },
                            "default_value": "",
                            "tabs": "all",
                            "toolbar": "full",
                            "media_upload": 0,
                            "delay": 0
                        },
                        {
                            "key": "field_61e4cb75bb46a",
                            "label": "Scores",
                            "name": "",
                            "type": "tab",
                            "instructions": "",
                            "required": 0,
                            "conditional_logic": 0,
                            "wrapper": {
                                "width": "",
                                "class": "",
                                "id": ""
                            },
                            "placement": "top",
                            "endpoint": 0
                        },
                        {
                            "key": "field_61e4cba9d6da2",
                            "label": "Scores Header",
                            "name": "scores_header",
                            "type": "text",
                            "instructions": "",
                            "required": 0,
                            "conditional_logic": 0,
                            "wrapper": {
                                "width": "",
                                "class": "",
                                "id": ""
                            },
                            "default_value": "Last Game",
                            "placeholder": "",
                            "prepend": "",
                            "append": "",
                            "maxlength": ""
                        },
                        {
                            "key": "field_61e3248758365",
                            "label": "Scores",
                            "name": "scores",
                            "type": "repeater",
                            "instructions": "",
                            "required": 0,
                            "conditional_logic": [
                                [
                                    {
                                        "field": "field_61e3500ca4281",
                                        "operator": "==",
                                        "value": "1"
                                    }
                                ]
                            ],
                            "wrapper": {
                                "width": "",
                                "class": "",
                                "id": ""
                            },
                            "collapsed": "",
                            "min": 0,
                            "max": 0,
                            "layout": "block",
                            "button_label": "+ Add Game",
                            "sub_fields": [
                                {
                                    "key": "field_61e324e658369",
                                    "label": "Date",
                                    "name": "date",
                                    "type": "text",
                                    "instructions": "",
                                    "required": 0,
                                    "conditional_logic": 0,
                                    "wrapper": {
                                        "width": "50",
                                        "class": "",
                                        "id": ""
                                    },
                                    "default_value": "",
                                    "placeholder": "",
                                    "prepend": "",
                                    "append": "",
                                    "maxlength": ""
                                },
                                {
                                    "key": "field_61e34e368f8d0",
                                    "label": "Round",
                                    "name": "round",
                                    "type": "text",
                                    "instructions": "e.g. Week 1, Game 4, Playoffs, World Series",
                                    "required": 0,
                                    "conditional_logic": 0,
                                    "wrapper": {
                                        "width": "50",
                                        "class": "",
                                        "id": ""
                                    },
                                    "default_value": "",
                                    "placeholder": "",
                                    "prepend": "",
                                    "append": "",
                                    "maxlength": ""
                                },
                                {
                                    "key": "field_61e324c158366",
                                    "label": "Seattle",
                                    "name": "seattle",
                                    "type": "group",
                                    "instructions": "",
                                    "required": 0,
                                    "conditional_logic": 0,
                                    "wrapper": {
                                        "width": "50",
                                        "class": "",
                                        "id": ""
                                    },
                                    "layout": "table",
                                    "sub_fields": [
                                        {
                                            "key": "field_61e324c658367",
                                            "label": "Score",
                                            "name": "score",
                                            "type": "text",
                                            "instructions": "",
                                            "required": 0,
                                            "conditional_logic": 0,
                                            "wrapper": {
                                                "width": "",
                                                "class": "",
                                                "id": ""
                                            },
                                            "default_value": "",
                                            "placeholder": "",
                                            "prepend": "",
                                            "append": "",
                                            "maxlength": ""
                                        },
                                        {
                                            "key": "field_61e3655f1b7c4",
                                            "label": "Home\/Away",
                                            "name": "home_away",
                                            "type": "button_group",
                                            "instructions": "",
                                            "required": 0,
                                            "conditional_logic": 0,
                                            "wrapper": {
                                                "width": "",
                                                "class": "",
                                                "id": ""
                                            },
                                            "choices": {
                                                "home": "Home",
                                                "away": "Away"
                                            },
                                            "allow_null": 0,
                                            "default_value": "",
                                            "layout": "horizontal",
                                            "return_format": "value"
                                        }
                                    ]
                                },
                                {
                                    "key": "field_61e3253b5836d",
                                    "label": "Opponent",
                                    "name": "opponent",
                                    "type": "group",
                                    "instructions": "",
                                    "required": 0,
                                    "conditional_logic": 0,
                                    "wrapper": {
                                        "width": "50",
                                        "class": "",
                                        "id": ""
                                    },
                                    "layout": "table",
                                    "sub_fields": [
                                        {
                                            "key": "field_61e34e0f8f8cf",
                                            "label": "Team",
                                            "name": "team",
                                            "type": "taxonomy",
                                            "instructions": "",
                                            "required": 0,
                                            "conditional_logic": 0,
                                            "wrapper": {
                                                "width": "",
                                                "class": "",
                                                "id": ""
                                            },
                                            "taxonomy": "team",
                                            "field_type": "select",
                                            "allow_null": 0,
                                            "add_term": 0,
                                            "save_terms": 0,
                                            "load_terms": 0,
                                            "return_format": "object",
                                            "multiple": 0
                                        },
                                        {
                                            "key": "field_61e3253b5836e",
                                            "label": "Score",
                                            "name": "score",
                                            "type": "text",
                                            "instructions": "",
                                            "required": 0,
                                            "conditional_logic": 0,
                                            "wrapper": {
                                                "width": "",
                                                "class": "",
                                                "id": ""
                                            },
                                            "default_value": "",
                                            "placeholder": "",
                                            "prepend": "",
                                            "append": "",
                                            "maxlength": ""
                                        }
                                    ]
                                }
                            ]
                        },
                        {
                            "key": "field_61e4cb79bb46b",
                            "label": "Schedule",
                            "name": "",
                            "type": "tab",
                            "instructions": "",
                            "required": 0,
                            "conditional_logic": 0,
                            "wrapper": {
                                "width": "",
                                "class": "",
                                "id": ""
                            },
                            "placement": "top",
                            "endpoint": 0
                        },
                        {
                            "key": "field_61e4cbcfd6da3",
                            "label": "Schedule Header",
                            "name": "schedule_header",
                            "type": "text",
                            "instructions": "",
                            "required": 0,
                            "conditional_logic": 0,
                            "wrapper": {
                                "width": "",
                                "class": "",
                                "id": ""
                            },
                            "default_value": "Next Game",
                            "placeholder": "",
                            "prepend": "",
                            "append": "",
                            "maxlength": ""
                        },
                        {
                            "key": "field_61e34f56f99f2",
                            "label": "Schedule",
                            "name": "schedule",
                            "type": "repeater",
                            "instructions": "",
                            "required": 0,
                            "conditional_logic": [
                                [
                                    {
                                        "field": "field_61e3500ca4281",
                                        "operator": "==",
                                        "value": "1"
                                    }
                                ]
                            ],
                            "wrapper": {
                                "width": "",
                                "class": "",
                                "id": ""
                            },
                            "collapsed": "",
                            "min": 0,
                            "max": 0,
                            "layout": "block",
                            "button_label": "+ Add Game",
                            "sub_fields": [
                                {
                                    "key": "field_61e34f56f99f3",
                                    "label": "Date",
                                    "name": "date",
                                    "type": "text",
                                    "instructions": "",
                                    "required": 0,
                                    "conditional_logic": 0,
                                    "wrapper": {
                                        "width": "33",
                                        "class": "",
                                        "id": ""
                                    },
                                    "default_value": "",
                                    "placeholder": "",
                                    "prepend": "",
                                    "append": "",
                                    "maxlength": ""
                                },
                                {
                                    "key": "field_61e498a4f1a23",
                                    "label": "Home\/Away",
                                    "name": "home_away",
                                    "type": "button_group",
                                    "instructions": "",
                                    "required": 0,
                                    "conditional_logic": 0,
                                    "wrapper": {
                                        "width": "33",
                                        "class": "",
                                        "id": ""
                                    },
                                    "choices": {
                                        "home": "Home",
                                        "away": "Away"
                                    },
                                    "allow_null": 0,
                                    "default_value": "",
                                    "layout": "horizontal",
                                    "return_format": "value"
                                },
                                {
                                    "key": "field_61e34f56f99f9",
                                    "label": "Opponent",
                                    "name": "opponent",
                                    "type": "taxonomy",
                                    "instructions": "",
                                    "required": 0,
                                    "conditional_logic": 0,
                                    "wrapper": {
                                        "width": "33",
                                        "class": "",
                                        "id": ""
                                    },
                                    "taxonomy": "team",
                                    "field_type": "select",
                                    "allow_null": 0,
                                    "add_term": 0,
                                    "save_terms": 0,
                                    "load_terms": 0,
                                    "return_format": "object",
                                    "multiple": 0
                                }
                            ]
                        }
                    ],
                    "min": "",
                    "max": ""
                }
            },
            "button_label": "+ Add Team",
            "min": "",
            "max": ""
        }
    ],
    "location": [
        [
            {
                "param": "post_type",
                "operator": "==",
                "value": "sports"
            }
        ]
    ],
    "menu_order": 0,
    "position": "normal",
    "style": "seamless",
    "label_placement": "top",
    "instruction_placement": "label",
    "hide_on_screen": [
        "the_content",
        "excerpt",
        "discussion",
        "comments",
        "revisions",
        "slug",
        "author",
        "format",
        "page_attributes",
        "categories",
        "tags",
        "send-trackbacks"
    ],
    "active": true,
    "description": "",
    "show_in_rest": 0,
    "modified": 1642405481
}